if (Device::where ('device_id','=',Input::get('device_id'))->first() &&
          Device::where ('username','=',Input::get('username'))->first())
        {
            Session::flash('msg', ' Device ID dengan Username yang sama sudah pernah diinputkan!');
        } 
        else {
$data = explode("," , Input::get('unique_id'));
    $user = User::all();

    // foreach ($data as $d)
    // {
    //     $str[] = $d['device_id'];
    //     $dev_id = "$str[0]";    // merubah dari objek ke string
    // }
    foreach ($user as $u)
    {
        $usr[] = $u['unique_id'];
        $unq_id = "$usr[0]";
    }
    
        for ($i=0; $i<=sizeof($data)-1;$i++)
    {
        $hasil[$i] = $data[$i]-$unq_id[$i];
    }
        }
    return $hasil;
        
        // return intval($string[5]);  // mengubah dari string ke integer
        // return $angka;

//   Device::create($request->all());